{
  "annotations": {
    "list": [
      {
        "builtIn": 1,
        "datasource": "-- Grafana --",
        "enable": true,
        "hide": true,
        "iconColor": "rgba(0, 211, 255, 1)",
        "name": "Annotations & Alerts",
        "target": {
          "limit": 100,
          "matchAny": false,
          "tags": [],
          "type": "dashboard"
        },
        "type": "dashboard"
      }
    ]
  },
  "editable": true,
  "fiscalYearStartMonth": 0,
  "graphTooltip": 0,
  "id": 1,
  "links": [],
  "liveNow": false,
  "panels": [
    {
      "fieldConfig": {
        "defaults": {
          "color": {
            "mode": "palette-classic"
          },
          "custom": {
            "axisLabel": "",
            "axisPlacement": "auto",
            "barAlignment": 0,
            "drawStyle": "line",
            "fillOpacity": 0,
            "gradientMode": "none",
            "hideFrom": {
              "legend": false,
              "tooltip": false,
              "viz": false
            },
            "lineInterpolation": "linear",
            "lineWidth": 1,
            "pointSize": 5,
            "scaleDistribution": {
              "type": "linear"
            },
            "showPoints": "auto",
            "spanNulls": false,
            "stacking": {
              "group": "A",
              "mode": "none"
            },
            "thresholdsStyle": {
              "mode": "off"
            }
          },
          "mappings": [],
          "thresholds": {
            "mode": "absolute",
            "steps": [
              {
                "color": "green",
                "value": null
              },
              {
                "color": "red",
                "value": 80
              }
            ]
          }
        },
        "overrides": []
      },
      "gridPos": {
        "h": 8,
        "w": 12,
        "x": 0,
        "y": 0
      },
      "id": 4,
      "options": {
        "legend": {
          "calcs": [],
          "displayMode": "list",
          "placement": "bottom"
        },
        "tooltip": {
          "mode": "single"
        }
      },
      "targets": [
        {
          "datasource": {
            "type": "frser-sqlite-datasource",
            "uid": "0ACDXhxnz"
          },
          "queryText": "select time,value as SynCityHQ  from trends where target='SynCityHQ' and metric='followers_count'",
          "queryType": "table",
          "rawQueryText": "select time,value as SynCityHQ  from trends where target='SynCityHQ' and metric='followers_count'",
          "refId": "A",
          "timeColumns": [
            "time",
            "ts"
          ]
        },
        {
          "datasource": {
            "type": "frser-sqlite-datasource",
            "uid": "0ACDXhxnz"
          },
          "hide": false,
          "queryText": "select time,value as animalia_token  from trends where target='animalia_token' and metric='followers_count'",
          "queryType": "table",
          "rawQueryText": "select time,value as animalia_token  from trends where target='animalia_token' and metric='followers_count'",
          "refId": "B",
          "timeColumns": [
            "time",
            "ts"
          ]
        }
      ],
      "title": "Followers Count",
      "type": "timeseries"
    },
    {
      "fieldConfig": {
        "defaults": {
          "color": {
            "mode": "palette-classic"
          },
          "custom": {
            "axisLabel": "",
            "axisPlacement": "auto",
            "barAlignment": 0,
            "drawStyle": "line",
            "fillOpacity": 0,
            "gradientMode": "none",
            "hideFrom": {
              "legend": false,
              "tooltip": false,
              "viz": false
            },
            "lineInterpolation": "linear",
            "lineWidth": 1,
            "pointSize": 5,
            "scaleDistribution": {
              "type": "linear"
            },
            "showPoints": "auto",
            "spanNulls": false,
            "stacking": {
              "group": "A",
              "mode": "none"
            },
            "thresholdsStyle": {
              "mode": "off"
            }
          },
          "mappings": [],
          "thresholds": {
            "mode": "absolute",
            "steps": [
              {
                "color": "green",
                "value": null
              },
              {
                "color": "red",
                "value": 80
              }
            ]
          }
        },
        "overrides": []
      },
      "gridPos": {
        "h": 8,
        "w": 12,
        "x": 0,
        "y": 8
      },
      "id": 2,
      "options": {
        "legend": {
          "calcs": [],
          "displayMode": "list",
          "placement": "bottom"
        },
        "tooltip": {
          "mode": "single"
        }
      },
      "targets": [
        {
          "datasource": {
            "type": "frser-sqlite-datasource",
            "uid": "0ACDXhxnz"
          },
          "queryText": "select time,value as SynCityHQ  from trends where target='SynCityHQ' and metric='tweet_count'",
          "queryType": "table",
          "rawQueryText": "select time,value as SynCityHQ  from trends where target='SynCityHQ' and metric='tweet_count'",
          "refId": "A",
          "timeColumns": [
            "time",
            "ts"
          ]
        },
        {
          "datasource": {
            "type": "frser-sqlite-datasource",
            "uid": "0ACDXhxnz"
          },
          "hide": false,
          "queryText": "select time,value as animalia_token  from trends where target='animalia_token' and metric='tweet_count'",
          "queryType": "table",
          "rawQueryText": "select time,value as animalia_token  from trends where target='animalia_token' and metric='tweet_count'",
          "refId": "B",
          "timeColumns": [
            "time",
            "ts"
          ]
        }
      ],
      "title": "Twitter Count",
      "type": "timeseries"
    }
  ],
  "refresh": "",
  "schemaVersion": 34,
  "style": "dark",
  "tags": [],
  "templating": {
    "list": []
  },
  "time": {
    "from": "now-7d",
    "to": "now"
  },
  "timepicker": {},
  "timezone": "",
  "title": "Trends",
  "uid": "pApgVIbnk",
  "version": 3,
  "weekStart": ""
}
