{ "name":"user1",
  "firstName":"user1",
  "lastName": "user1",
  "loginId": "user1",
  "emailAddress" : null,
  "description" : "user1 desc",
  "password" : "user1pass",
  "groupIdList":[],
  "status":1,
  "isVisible":1,
  "userRoleList": [ "ROLE_USER" ],
  "userSource": 0
}
