{
    "targets": [
        {
            "displayName": "SYN CITY",
            "facebook": "somefacebook",
            "twitter": {
                "id": "1446205802990092299",
                "userName": "SynCityHQ"
            }
        },
        {
            "displayName": "Animalia",
            "facebook": "somefacebook2",
            "twitter": {
                "id": "1446205802990092299",
                "userName": "animalia_token"
            }
        }
    ]
}